AWSTATS DATA FILE 7.6 (build 20161204)
# If you remove this file, all statistics for date 202112 will be lost/reset.
# Last config file used to build this data file was /etc/awstats/awstats.arunasp.com.conf.

# Position (offset in bytes) in this file for beginning of each section for
# direct I/O access. If you made changes somewhere in this file, you should
# also remove completely the MAP section (AWStats will rewrite it at next
# update).
BEGIN_MAP 28
POS_GENERAL 1994                
POS_TIME 2682                
POS_VISITOR 16517               
POS_DAY 39215               
POS_DOMAIN 3599                
POS_LOGIN 3834                
POS_ROBOT 3989                
POS_WORMS 5346                
POS_EMAILSENDER 5477                
POS_EMAILRECEIVER 5620                
POS_SESSION 39652               
POS_SIDER 39865               
POS_FILETYPES 5755                
POS_DOWNLOADS 6107                
POS_OS 6186                
POS_BROWSER 6561                
POS_SCREENSIZE 10310               
POS_UNKNOWNREFERER 10384               
POS_UNKNOWNREFERERBROWSER 11278               
POS_ORIGIN 11575               
POS_SEREFERRALS 11720               
POS_PAGEREFS 11967               
POS_SEARCHWORDS 12671               
POS_KEYWORDS 12823               
POS_MISC 2345                
POS_ERRORS 12882               
POS_CLUSTER 3690                
POS_SIDER_404 13054               
END_MAP

# LastLine    = Date of last record processed - Last record line number in last log - Last record offset in last log - Last record signature value
# FirstTime   = Date of first visit for history file
# LastTime    = Date of last visit for history file
# LastUpdate  = Date of last update - Nb of parsed records - Nb of parsed old records - Nb of parsed new records - Nb of parsed corrupted - Nb of parsed dropped
# TotalVisits = Number of visits
# TotalUnique = Number of unique visitors
# MonthHostsKnown   = Number of hosts known
# MonthHostsUnKnown = Number of hosts unknown
BEGIN_GENERAL 8
LastLine 20211216051042 3360 1180528 27715043299712
FirstTime 20211204111120
LastTime 20211216051039
LastUpdate 20211216052105 3360 0 3360 0 0
TotalVisits 650                 
TotalUnique 523                 
MonthHostsKnown 0                   
MonthHostsUnknown 573                 
END_GENERAL

# Misc ID - Pages - Hits - Bandwidth
BEGIN_MISC 10
PDFSupport 0 0 0
FlashSupport 0 0 0
JavascriptDisabled 0 0 0
WindowsMediaPlayerSupport 0 0 0
AddToFavourites 0 95 0
TotalMisc 0 0 0
QuickTimeSupport 0 0 0
RealPlayerSupport 0 0 0
JavaEnabled 0 0 0
DirectorSupport 0 0 0
END_MISC

# Hour - Pages - Hits - Bandwidth - Not viewed Pages - Not viewed Hits - Not viewed Bandwidth
BEGIN_TIME 24
0 25 121 47627873 26 40 376126
1 214 259 7171657 55 85 423289
2 11 41 22727491 5 6 53946
3 19 75 18132266 18 71 9886571
4 21 50 9899460 24 33 321494
5 18 70 16266176 43 89 1524896
6 16 48 5192387 9 16 132596
7 11 28 7785454 21 30 142888
8 18 58 4923371 16 27 142156
9 105 338 83905205 49 70 496155
10 102 384 139697183 21 34 1827617
11 64 185 17282639 28 49 332898
12 114 413 107468804 13 16 211398
13 113 391 115323449 103 214 7495849
14 130 464 63033512 78 88 1206982
15 153 589 120445912 111 142 16347826
16 228 676 175259742 44 64 378070
17 184 786 203276036 50 84 16081077
18 217 826 197623373 33 42 1521464
19 147 556 131645001 106 132 11222985
20 136 509 156285085 31 77 1632368
21 191 763 215298990 71 106 781479
22 86 330 118791715 72 90 11115281
23 37 152 49801076 15 59 23140499
END_TIME

# Domain - Pages - Hits - Bandwidth
# The 10 first Pages must be first (order not required for others)
BEGIN_DOMAIN 1
ip 2360 8112 2034863857
END_DOMAIN

# Cluster ID - Pages - Hits - Bandwidth
BEGIN_CLUSTER 0
END_CLUSTER

# Login - Pages - Hits - Bandwidth - Last visit
# The 10 first Pages must be first (order not required for others)
BEGIN_LOGIN 0
END_LOGIN

# Robot ID - Hits - Bandwidth - Last visit - Hits on robots.txt
# The 10 first Hits must be first (order not required for others)
BEGIN_ROBOT 31
bingbot/ 137 912207 20211216012428 11
YandexBot/ 132 1504431 20211215160356 5
bingpreview 87 3857565 20211213141321 0
baidu 85 38554714 20211211173335 0
bot[\s_+:,\.\;\/\\-] 39 15443093 20211215073620 2
PhantomJS 32 15712308 20211209034257 0
Googlebot/ 30 292712 20211215030533 6
dataprovider\.com 28 7943636 20211206192314 1
Wget/ 17 16280 20211216010101 0
AhrefsBot/ 14 78764 20211213024438 6
MSIE[\x20]6 1 32573 20211212105525 0
TelegramBot 1 7906 20211210130912 0
java 1 32477 20211208211744 0
python 7 33446 20211212001436 2
no_user_agent 10 274026 20211216023737 0
Python\-urllib/ 2 59456 20211204121705 0
spider 9 80133 20211208212528 1
YandexImages/ 1 14603 20211215043234 0
Apache\-HttpClient/ 12 109475 20211208185647 0
facebookexternalhit/ 2 29206 20211209204746 0
favicon 4 22800 20211213204551 0
Screaming[\x20]Frog[\x20]SEO[\x20]Spider/ 2 660 20211207181416 2
Googlebot\-Image/ 1 3450 20211207043918 0
^mozilla\/5\.0$ 1 32467 20211209094407 0
ips\-agent 5 19198 20211211075239 2
catbot 3 8568 20211211112553 2
(firefox/)([0-9]\.|[0-1][0]\.) 5 159567 20211209101756 0
unknown 13 3982 20211210120241 13
core 1 8070 20211215162446 0
ltx71 11 97776 20211206112510 2
AdsBot\-Google[\x20]\( 3 23938 20211213213033 0
END_ROBOT

# Worm ID - Hits - Bandwidth - Last visit
# The 5 first Hits must be first (order not required for others)
BEGIN_WORMS 0
END_WORMS

# EMail - Hits - Bandwidth - Last visit
# The 20 first Hits must be first (order not required for others)
BEGIN_EMAILSENDER 0
END_EMAILSENDER

# EMail - Hits - Bandwidth - Last visit
# The 20 first hits must be first (order not required for others)
BEGIN_EMAILRECEIVER 0
END_EMAILRECEIVER

# Files type - Hits - Bandwidth - Bandwidth without compression - Bandwidth after compression
BEGIN_FILETYPES 14
txt 1 271 0 0
woff2 688 32331074 0 0
ttf 19 1745088 0 0
jpg 673 1622999676 0 0
svg 12 35434 0 0
js 2074 28572816 0 0
Unknown 673 4634972 0 0
eot 38 3327382 0 0
jpeg 226 72915498 0 0
map 22 2096622 0 0
woff 43 2312666 0 0
css 1707 21510436 0 0
png 1059 233087975 0 0
html 877 9293947 0 0
END_FILETYPES

# Downloads - Hits - Bandwidth
BEGIN_DOWNLOADS 1
/payeer_1553474730.txt 1 0 271
END_DOWNLOADS

# OS ID - Hits
BEGIN_OS ID - Hits - Pages 23
winnt 9 9
win10 3285 1207
win7 379 80
linuxubuntu 2 2
bsdopenbsd 1 1
winvista 2 2
macosx9 4 1
Unknown 376 92
linux 364 111
win2003 2 2
linuxfedora 1 1
macosx11 2 2
winlong 1 1
win8 7 7
winxp 4 1
ios_iphone 452 89
win2000 2 2
linuxandroid 3066 704
macosx12 2 2
macosx 44 13
unix 38 10
macosx8 1 1
win8.1 68 20
END_OS

# Browser ID - Hits - Pages
BEGIN_BROWSER 169
chrome11.0.696.71 8 8
chrome71.0.3578.99 18 3
chrome72.0.3626.119 1 1
chrome61.0.3163.79 1 1
chrome89.0.4389.114 2 2
firefox45.0 1 1
chrome91.0.4472.88 17 3
safari7.0.3 3 0
chrome75.0.3173.88 1 1
chrome34.0.1847.137 1 1
chrome76.0.3809.100 27 4
chrome35.0.1916.47 1 1
chrome92.0.4515.166 314 69
firefox21.0 1 1
chrome73.0.2197.88 1 1
chrome78.0.3904.87 10 2
firefox33.0 3 2
chrome45.0.2454.94 1 1
chrome66.0.3359.139 2 2
chrome87.0.4280.88 1 1
chrome57.0.2987.108 27 14
chrome83.0.4103.97 36 36
chrome80.0.3987.119 1 1
chrome28.0.1500.94 14 2
firefox68.0 1 1
chrome69.0.3497.91 17 4
chrome75.0.3765.0 16 3
chrome77.0.3596.88 1 1
chrome19.0.1084.9 1 1
chrome77.0.1685.88 1 1
chrome79.0 6 6
safari14.0.1 16 3
chrome88.0.4324.150 1 1
chrome72.0.3626.109 2 2
chrome71.0.3578.98 1 1
chrome68.0.3440.106 128 24
chrome23.0.1271.95 5 1
msie10.0 1 1
opera54.0.2952.64 2 2
firefox84.0 2 2
chrome40.0.2214.115 6 1
chrome91.0.4472.120 1 1
opera12.0 1 0
chrome96.0.4664.45 1517 425
chrome79.0.3945.117 1 1
safari14.0.2 16 3
chrome38.0.2125.102 2 2
firefox52.0.1 1 1
firefox70.0 1 1
chrome79.0.3945.79 48 9
safari15.1 79 14
chrome78.0.3904.108 26 26
edge12 250 180
chrome90.0.4430.72 16 3
firefox28.0 3 3
chrome92.0.4515.115 20 4
safari11.1.2 2 2
chrome71.0.3102.88 1 1
chrome90.0.4430.216 17 3
chrome96.0.4664.104 318 65
chrome93.0.4577.62 16 3
firefox60.0 2 2
chrome75.0.2891.88 1 1
chrome72.0.3626.121 11 2
mozilla 26 12
chrome96.0.4664.93 1089 336
chrome95.0.4638.74 150 43
chrome88.0.4240.193 14 14
chrome83.0.4103.96 16 3
firefox91.0 16 3
firefox36.0 1 0
safari11.0 14 3
Unknown 165 15
chrome76.0.2224.88 1 1
firefox50.0 4 0
chrome29.0.1547.2 1 1
safari13.1.2 54 13
safari12.1.2 96 18
chrome83.0.4103.116 2 2
chrome71.0.2558.88 1 1
chrome96.0.4664.92 731 167
chrome65.0.3325.181 2 2
chrome36.0.1985.125 1 1
chrome28.0.1467.0 1 1
chrome93.0.4577.82 19 4
chrome94.0.4606.85 145 36
chrome66.0.3359.181 7 7
chrome83.0.4103.61 18 3
chrome90.0.4430.210 80 17
safari15.0 13 2
chrome74.0.1666.88 1 1
chrome84.0.4147.89 2 2
chrome39.0.0.0 9 1
chrome12.0.703.0 2 2
chrome90.0.4430.66 17 5
chrome95.0.4638.69 146 29
firefox53.0 1 1
chrome70.0.3538.77 23 6
iphone 32 6
chrome97.0.4691.0 16 3
chrome95.0.4638.54 138 25
chrome79.0.3945.116 14 3
chrome84.0.4147.125 18 4
chrome79.0.3945.136 23 4
chrome94.0.4606.124 38 10
chrome92.0.4515.159 103 22
chrome71.0.2926.88 1 1
chrome58.0.3029.110 6 5
msie11.0 18 4
chrome80.0.3987.149 8 8
chrome74.0.1788.88 1 1
chrome81.0.4044.138 56 13
chrome78.0.2516.88 1 1
firefox94.0 40 9
wap 2 2
opera81.0.4196.60 98 48
chrome86.0.4240.75 30 10
chrome27.0.1453.93 1 1
chrome88.0.4324.93 23 4
firefox89.0 1 1
safari14.0.3 16 3
chrome79.0.3945.130 2 2
firefox57.0 16 3
chrome91.0.4472.114 4 4
chrome76.0.2404.88 1 1
chrome77.0.1385.88 1 1
chrome79.0.3945.88 101 101
firefox25.0 1 1
chrome75.0.3770.143 20 5
chrome89.0.4389.116 353 85
chrome78.0.3944.88 1 1
msie9.0 85 7
chrome26.0.1410.58 16 3
firefox78.0 6 2
chrome80.0.3987.0 6 1
chrome83.0.4103.101 16 3
chrome94.0.4606.61 42 13
chrome96.0.4664.55 102 20
chrome71.0.3578.141 9 1
chrome79.0.3321.88 1 1
chrome72.0.3948.88 1 1
chrome37.0.2049.0 1 0
chrome76.0.3809.71 32 6
firefox26.0 1 1
chrome87.0.4280.141 133 32
opera80.0.4170.63 24 4
chrome80.0.3987.116 11 2
chrome77.0.2312.88 1 1
chrome79.0.3945.147 18 4
chrome67.0.3396.99 27 5
opera81.0.4196.61 26 4
android 28 7
chrome19.0.1063.0 1 1
chrome83.0.4103.106 134 47
safari13.0.4 2 2
chrome94.0.4606.81 27 4
firefox52.0 1 1
chrome89.0.4389.90 20 5
firefox95.0 52 10
chrome59.0.3071.115 2 2
chrome89.0.4389.128 4 1
chrome81.0.4044.145 16 3
opera52.0.2871.40 26 26
chrome78.0.2597.88 1 1
chrome70.0.3538.80 1 1
safari14.1.2 68 14
safari14.1.1 66 12
chrome 2 1
chrome60.0.3112.113 2 2
END_BROWSER

# Screen size - Hits
BEGIN_SCREENSIZE 0
END_SCREENSIZE

# Unknown referer OS - Last visit date
BEGIN_UNKNOWNREFERER 13
Mozilla/5.0_Firefox/26.0 20211206123927
Mozilla/5.0_(compatible;_vkShare;__http://vk.com/dev/Share) 20211210130825
\ 20211208120039
Mozilla/5.0_(compatible;_Wappalyzer) 20211208091304
cortex/1.0 20211209204943
ScamadviserExternalHit/1.0 20211208211549
colly_-_https://github.com/gocolly/colly/v2 20211208060706
webtech/1.2.11 20211208150256
Mozilla/5.0_(en-us)_AppleWebKit/537.36(KHTML,_like_Gecko;_Google-Adwords-DisplayAds-WebRender;)_Chrome/96.0.4664.45Safari/537.36 20211216040101
Google-Adwords-DisplayAds 20211216040103
Mozilla/5.0_(compatible;_Let's_Encrypt_validation_server;__https://www.letsencrypt.org) 20211204121330
Mozilla/5.0_Firefox/33.0 20211209012509
Mozilla/5.0_AppleWebKit/537.36_(KHTML,_like_Gecko;_Mozilla/5.0,_Google-AdWords-Express)_Chrome/96.0.4664.45_Safari/537.36 20211213215744
END_UNKNOWNREFERER

# Unknown referer Browser - Last visit date
BEGIN_UNKNOWNREFERERBROWSER 6
ScamadviserExternalHit/1.0 20211208211549
cortex/1.0 20211209204943
\ 20211208120039
Google-Adwords-DisplayAds 20211216040103
webtech/1.2.11 20211208150256
colly_-_https://github.com/gocolly/colly/v2 20211208060706
END_UNKNOWNREFERERBROWSER

# Origin - Pages - Hits 
BEGIN_ORIGIN 6
From0 897 1110
From1 5 5
From2 54 54
From3 45 45
From4 1359 6898
From5 0 0
END_ORIGIN

# Search engine referers ID - Pages - Hits
BEGIN_SEREFERRALS 7
bing 1 1
google_com 9 9
www_google_com_ua 2 2
yandexru 1 1
www_google_com 17 17
youtube 23 23
digg 1 1
END_SEREFERRALS

# External page referers - Pages - Hits
# The 10 first Pages must be first (order not required for others)
BEGIN_PAGEREFS 17
https://googleads.g.doubleclick.net 20 20
https://www.fl.ru 4 4
https://www.facebook.com 3 3
https://googleads.g.doubleclick.net/pagead/ads 3 3
https://tr.holaquiz.com 2 2
https://tr.buddysecret.com 2 2
https://kivitu.com 1 1
https://googleads.g.doubleclick.net/pagead/html/r20211207/r20110914/zrt_lookup.html 1 1
https://lm.facebook.com 1 1
https://click.mail.ru 1 1
https://onedio.com 1 1
https://perfectmoney.is 1 1
https://www.fl.ru/away/ 1 1
https://www.fl.ru/a.php 1 1
https://search4y.com 1 1
https://ru.holaquiz.com 1 1
https://l.facebook.com 1 1
END_PAGEREFS

# Search keyphrases - Number of search
# The 10 first number of search must be first (order not required for others)
BEGIN_SEARCHWORDS 0
END_SEARCHWORDS

# Search keywords - Number of search
# The 10 first number of search must be first (order not required for others)
BEGIN_KEYWORDS 0
END_KEYWORDS

# Errors - Hits - Bandwidth
BEGIN_ERRORS 7
500 41 1197179
404 637 5429193
403 6 5426
302 134 163529
301 6 2782
405 1 44952
206 46 14561917
END_ERRORS

# URL with 404 errors - Hits - Last URL referrer
BEGIN_SIDER_404 79
/administrator/help/en-GB/toc.json 1 -
/wp/wp-admin/setup-config.php 1 -
/wp-includes/js/jquery/jquery.js 1 -
//wp2/wp-includes/wlwmanifest.xml 27 -
/images/editor/separator.gif 1 -
/js/cms/panel/panel.js 1 -
/archivarix.cms.php 2 -
/ru/index.html 7 https://arunasp.com/ru/about
/en/password/images/favicon.png 1 https://arunasp.com/en/password/reset
/en/index.html 5 https://arunasp.com/en/about
/apple-app-site-association 3 -
/fckeditor/editor/filemanager/connectors/php/upload.php 1 -
/manager/assets/modext/modx.jsgrps-min.js 1 -
//xmlrpc.php 27 -
/restapi.php 2 -
/.env 5 -
/misc/drupal.js 1 -
/aaa9 1 -
/gate.php 2 -
/robots.txt 1 -
/components/images/bg/ban1_1.jpeg 1 https://arunasp.com/
//web/wp-includes/wlwmanifest.xml 27 -
/_ignition/execute-solution 2 -
/wordpress/wp-admin/install.php 1 -
/components/images/bg/ban1_1.png 1 https://arunasp.com/
/sitemap.xml 1 -
/admin/view/javascript/common.js 1 -
/en/blog-single.html 4 https://arunasp.com/en/reviews
/dup-installer/main.installer.php 1 http://arunasp.com/dup-installer/main.installer.php
/wp-login.php 1 -
/wp-admin/install.php 2 -
/ru/blog-single.html 4 https://arunasp.com/ru/reviews
/wp/wp-admin/install.php 1 -
/blog-single.html 7 https://arunasp.com/reviews
/password/reset/images/favicon.png 8 https://arunasp.com/password/reset/1e9dcea7f3d270784bd8a52fb097d9dc90ac0eb51d66a32864930cfcb226055b
/administrator 1 -
/plugins/system/debug/debug.xml 1 -
/wp-content/plugins/masterx/wp-blog.php 1 -
/misc/ajax.js 1 -
/support 1 https://arunasp.com/support
/ads.txt 3 http://arunasp.com/ads.txt
//2020/wp-includes/wlwmanifest.xml 8 -
//cms/wp-includes/wlwmanifest.xml 27 -
/apple-touch-icon.png 2 -
/humans.txt 1 http://arunasp.com/humans.txt
/.well-known/apple-app-site-association 3 -
//shop/wp-includes/wlwmanifest.xml 24 -
//website/wp-includes/wlwmanifest.xml 27 -
//sito/wp-includes/wlwmanifest.xml 27 -
/ru/images/favicon.png 5 https://arunasp.com/ru/login
/wp-admin/setup-config.php 2 -
/vendor/phpunit/phpunit/build.xml 1 -
/index.html 8 https://arunasp.com/about
//2019/wp-includes/wlwmanifest.xml 24 -
/wordpress/wp-admin/setup-config.php 1 -
/ru/images/bg/image-2.jpg 2 https://arunasp.com/ru/support
/arunasp.com 1 -
//wp1/wp-includes/wlwmanifest.xml 27 -
/account 6 https://arunasp.com/password/reset/1e9dcea7f3d270784bd8a52fb097d9dc90ac0eb51d66a32864930cfcb226055b
/password/images/favicon.png 19 https://arunasp.com/password/reset
//2018/wp-includes/wlwmanifest.xml 16 -
//site/wp-includes/wlwmanifest.xml 27 -
/administrator/language/en-GB/install.xml 1 -
/wp-content 3 -
/js/header-rollup-554.js 1 -
//news/wp-includes/wlwmanifest.xml 27 -
/apple-touch-icon-precomposed.png 2 -
//blog/wp-includes/wlwmanifest.xml 27 -
/en/images/favicon.png 6 https://arunasp.com/en/login
/privacy_policy.php 1 -
/media/system/js/core.js 1 -
//wp/wp-includes/wlwmanifest.xml 27 -
/admin/includes/general.js 1 -
//media/wp-includes/wlwmanifest.xml 16 -
//test/wp-includes/wlwmanifest.xml 27 -
/images/bg/image-2.jpg 22 https://arunasp.com/support
//wp-includes/wlwmanifest.xml 27 -
/en/images/bg/image-2.jpg 2 https://arunasp.com/en/support
//wordpress/wp-includes/wlwmanifest.xml 27 -
END_SIDER_404

# Host - Pages - Hits - Bandwidth - Last visit date - [Start date of last visit] - [Last page of last visit]
# [Start date of last visit] and [Last page of last visit] are saved only if session is not finished
# The 10 first Hits must be first (order not required for others)
BEGIN_VISITOR 573
146.59.157.229 181 216 6625011 20211208015859
185.248.131.19 165 532 136603029 20211209101027
194.31.169.178 154 458 67506637 20211205183216
194.31.168.210 114 233 2805322 20211212173713
51.210.182.66 99 134 2623584 20211205164013
194.31.168.84 85 246 32308329 20211211213449
185.248.131.85 43 152 23702474 20211210091730
194.31.168.137 38 189 53764254 20211213212901
194.31.169.132 30 115 55865195 20211214220858
123.60.83.110 19 19 142308 20211215050822
195.201.41.238 1 1 29685 20211207023253
3.19.56.43 2 2 600 20211204121329
149.27.114.12 3 16 4853097 20211215171943
35.86.171.64 1 1 6889 20211207014505
167.114.77.13 2 2 64940 20211208094627
34.101.122.127 2 2 64946 20211209151649
94.76.108.39 2 11 207348 20211211175345
212.47.136.2 1 1 8074 20211215201013
181.214.117.185 0 2 15553 
3.144.76.37 1 1 7964 20211213000732
178.88.158.123 3 16 4853103 20211215182716
94.20.37.140 3 16 4853139 20211215202224
185.248.131.69 7 20 26276 20211210184906
206.189.247.132 1 3 50523 20211211171714
167.160.53.62 0 2 2597239 
212.47.138.1 1 1 8078 20211215191112
34.101.90.30 2 2 64942 20211208143334
92.244.246.99 3 17 7704700 20211211095708
134.209.194.57 6 6 35166 20211210125057
119.13.206.137 0 1 3879 
212.47.140.237 3 13 239582 20211215232818
45.72.18.206 1 1 32704 20211214034125
194.135.152.120 1 1 8074 20211215175329
66.249.83.203 5 24 350008 20211216034435
212.47.141.162 1 1 8073 20211215173119
5.191.22.37 3 16 4853097 20211215211306
5.191.54.229 3 16 4853129 20211215182629
54.71.26.68 1 1 7919 20211209010354
94.76.108.4 3 16 7701429 20211207205355
89.104.101.65 1 1 6889 20211206203631
5.197.250.241 3 16 1676677 20211215180029
77.106.2.33 3 17 7704756 20211213105642
193.93.219.165 3 15 7698672 20211205103001
31.171.92.134 3 17 4856587 20211215135802
34.212.184.88 1 1 6887 20211206002857
212.47.138.107 3 16 4853132 20211215155556
52.13.76.197 1 1 7971 20211216010153
5.197.235.20 4 18 4864663 20211215184530
120.35.11.210 1 1 7915 20211207184344
18.236.219.30 1 1 7982 20211214101342
139.162.168.39 2 2 11724 20211208202731
34.219.38.101 1 1 7984 20211214101346
171.13.14.18 1 9 4386270 20211206161112
94.25.178.151 3 17 7704692 20211211091746
54.187.162.21 1 1 6889 20211207014507
34.212.207.136 1 1 7980 20211214101420
212.47.143.237 3 16 4853098 20211215192657
194.135.168.82 3 16 4853091 20211215170846
31.134.93.58 17 43 7800267 20211210192446
77.244.126.234 2 4 52236 20211215141856
188.166.127.145 1 1 32475 20211208211548
212.47.137.96 3 17 4856579 20211215203338
5.197.201.254 10 24 4896714 20211215185505
102.129.228.146 1 1 79319 20211206163150
3.19.188.203 3 17 7703855 20211205034423
185.65.134.232 2 2 11733 20211208131728
181.214.182.110 0 2 15553 
212.47.140.254 1 1 8075 20211215190233
172.105.113.216 2 2 64944 20211211152800
194.135.167.254 3 16 4853135 20211215183911
176.125.231.36 3 16 7701257 20211208233635
35.221.25.16 2 2 59374 20211205193946
193.176.214.22 1 1 8086 20211215163349
80.120.129.210 1 1 6893 20211206123927
23.95.108.186 1 1 6889 20211204193800
66.249.80.189 1 1 7997 20211213215744
85.132.106.220 8 35 6654098 20211215143537
66.249.83.201 3 19 4513686 20211216034222
181.214.200.136 0 1 21981 
52.38.23.58 2 2 15960 20211214041052
65.155.30.101 3 16 7701431 20211207201838
188.163.39.151 0 5 83599 
208.64.33.176 2 2 64944 20211209171230
94.228.16.46 1 9 126659 20211215150245
194.135.168.135 6 20 4880811 20211215215256
212.47.137.14 3 17 4856581 20211215120155
212.47.142.171 3 19 6290228 20211215184244
66.249.83.3 7 36 1603868 20211216034223
35.88.156.87 1 1 7904 20211210012617
181.215.86.146 1 5 59315 20211206163137
212.47.139.76 3 17 4856549 20211215104902
34.219.87.132 2 2 600 20211204121330
185.43.191.243 1 5 59568 20211215171637
5.188.108.185 14 14 86222 20211210223931
5.191.50.91 3 14 3419502 20211215214402
119.13.195.134 1 5 75934 20211206163245
31.13.127.12 1 6 3233996 20211209204835
185.30.91.105 3 10 245267 20211215173502
100.26.52.66 13 54 384380 20211215190321
185.27.99.136 1 1 6893 20211205192917
212.47.137.211 1 1 8072 20211215225800
52.42.27.42 1 1 7980 20211214101442
178.49.157.5 3 16 7701298 20211212165759
89.219.187.180 3 17 4856544 20211215140853
5.9.72.243 3 17 7703853 20211207151054
181.215.76.30 1 5 59562 20211208141121
212.47.141.185 3 12 224982 20211215181221
82.194.27.191 3 16 4853141 20211216051039 20211216051037 /components/vendor/font-awesome/webfonts/fa-solid-900.woff2
5.191.18.199 3 14 3419489 20211215223516
51.68.92.154 3 16 7701249 20211208211746
64.78.149.164 2 2 600 20211204121330
185.30.90.60 1 1 8075 20211215203135
52.34.124.27 2 2 15936 20211215010936
31.13.127.30 1 4 126892 20211209204836
185.32.44.51 3 16 4853138 20211215171243
185.30.88.107 1 13 4488326 20211215141046
139.99.61.171 1 1 29685 20211205100809
34.132.148.5 1 11 133872 20211209054605
5.191.15.46 1 9 139084 20211215190109
109.205.160.241 3 13 239589 20211215140213
176.235.75.196 3 16 7701300 20211213003142
94.251.98.13 13 54 31796550 20211209150400
176.53.221.66 1 1 7919 20211208232237
157.97.132.236 1 1 29681 20211206062311
185.43.191.245 3 17 4856544 20211215175138
185.158.208.132 2 11 207357 20211211180547
89.147.239.10 3 17 4856583 20211215181338
122.161.247.67 12 12 66265 20211207124902
185.81.80.79 2 15 4773815 20211215123536
109.230.27.160 4 4 124320 20211208223739
66.249.83.74 3 23 4677002 20211214190335
212.188.15.196 3 16 7701431 20211207210523
212.47.136.173 8 23 4900407 20211215212536
81.222.189.186 3 17 7704690 20211210153246
49.207.204.172 6 20 4872420 20211215102247
77.40.95.110 3 15 4289881 20211212193738
34.222.213.228 1 1 7961 20211216010102
149.202.180.22 1 1 6893 20211206013630
23.224.182.90 2 2 59376 20211206134258
85.132.102.170 5 22 9486277 20211215194455
34.125.89.26 2 2 65154 20211213142903
178.171.46.113 4 4 130888 20211216013019
149.255.152.135 3 16 4853133 20211215151222
82.194.29.115 6 30 9685592 20211215172134
64.137.86.221 0 1 31214 
212.47.143.196 1 3 44123 20211215190020
35.161.55.221 8 34 15418706 20211208101953
82.132.212.171 1 1 32466 20211211173334
212.47.138.34 3 17 4856582 20211215193136
52.43.216.163 1 1 7971 20211216010118
5.197.245.202 3 17 4856590 20211215142042
94.20.32.103 4 17 4861211 20211215174049
185.57.30.196 3 17 4856543 20211215085408
34.222.125.84 1 1 7910 20211212011639
5.197.251.255 3 16 4853101 20211215180742
88.107.189.224 1 3 50519 20211211173510
38.108.182.5 3 16 7700403 20211206005959
5.197.242.11 3 17 4856539 20211215150946
34.133.64.134 1 11 133859 20211211221756
23.100.232.233 2 28 15212000 20211206202556
66.249.83.123 0 2 25431 
134.19.232.197 3 16 4853093 20211215212258
171.13.14.4 3 14 3419395 20211214050426
195.211.23.210 1 1 7908 20211210130824
95.158.53.117 4 26 19642477 20211214213056
65.154.226.220 4 22 7778338 20211207172336
46.4.33.48 1 1 29693 20211206180453
89.208.31.177 1 10 130411 20211210144747
111.13.63.75 1 1 29683 20211207161207
82.194.22.182 3 17 4856546 20211215131908
168.151.116.22 2 5 159319 20211205163623
185.158.209.10 3 16 7701429 20211207200556
5.197.243.167 1 1 8035 20211215172806
212.47.136.237 3 15 3422939 20211215122327
35.89.6.189 1 1 7982 20211214101415
181.215.77.168 1 4 127618 20211208141119
107.172.73.224 2 2 65328 20211215150808
212.47.137.142 0 2 36092 
5.197.221.133 5 19 4977406 20211215134240
36.110.211.66 1 2 10772 20211206154248
34.135.250.72 1 11 133926 20211216010903
176.113.42.58 1 1 7923 20211207203705
222.175.198.13 3 3 23870 20211215145158
66.249.80.162 0 3 64910 
77.244.124.103 3 9 233585 20211215173212
34.217.71.124 3 16 7701431 20211208134937
34.69.105.120 1 11 133915 20211213061946
8.41.221.58 1 1 29685 20211206025345
54.188.13.129 1 1 7906 20211211010453
54.148.208.3 1 1 7980 20211214041744
52.90.27.188 0 1 14603 
159.223.84.134 2 2 59384 20211206155807
178.63.10.211 1 1 6887 20211205132912
46.228.191.195 10 27 6439590 20211215134130
5.191.15.191 5 19 4977402 20211215192924
188.163.39.137 0 1 11715 
45.183.92.180 0 1 3450 
77.52.179.7 1 11 140915 20211204150613
5.197.218.229 3 16 4853093 20211215191740
37.19.218.20 1 1 32466 20211211173334
212.47.143.55 3 15 4582742 20211215123812
194.135.152.206 4 18 4864660 20211215184701
109.194.73.69 3 16 7701433 20211207205524
181.215.78.171 1 5 4929297 20211206163250
212.47.137.188 5 17 4666879 20211215182039
212.47.140.234 1 1 8072 20211215133354
178.214.246.31 9 48 22988336 20211211153512
207.46.13.187 0 2 33435 
5.197.220.243 6 19 4877365 20211215192127
36.99.136.138 1 1 7913 20211208040938
212.47.139.243 1 4 45894 20211215192848
62.212.226.35 1 1 8077 20211215140807
5.44.37.249 3 16 4853132 20211215183642
193.176.214.69 5 19 4872726 20211215170700
212.47.140.200 3 15 3422938 20211215143645
20.99.235.117 2 2 59374 20211206141638
80.93.126.230 3 17 4856588 20211215161201
3.23.102.194 3 17 7704877 20211207194615
46.245.132.199 6 32 22968617 20211212030110
54.189.68.109 1 1 7913 20211208014153
54.214.149.129 1 1 6889 20211206110146
181.215.218.117 1 4 3277705 20211205163111
212.47.143.198 1 1 8033 20211215122607
171.13.14.76 1 1 7980 20211214050415
91.151.136.199 3 17 4856544 20211215155524
94.20.96.207 1 1 8087 20211215183925
43.245.160.39 4 4 129876 20211208221316
104.168.21.17 3 3 23722 20211211070131
95.58.43.13 3 16 4853089 20211215173446
195.244.9.96 3 17 4856472 20211215203417
178.134.77.81 5 23 1505238 20211215180213
185.115.4.86 3 18 8036486 20211215164615
34.212.125.200 1 1 6895 20211206105731
185.115.4.15 4 18 3492475 20211215175326
3.17.210.127 1 1 7915 20211208071925
52.43.219.13 0 1 2245 
212.47.136.228 2 10 139829 20211215165552
193.176.84.16 4 26 22490577 20211211102017
185.11.15.132 3 16 7701298 20211213002504
137.226.113.44 2 2 15890 20211215160515
66.249.80.191 1 3 14095 20211213215431
79.137.143.139 1 1 7912 20211211131415
54.196.103.227 11 11 82045 20211212150349
180.189.246.87 1 1 6897 20211207102455
34.248.205.44 1 1 7921 20211208213421
185.220.181.4 1 6 90784 20211215164945
101.127.151.22 0 1 14603 
212.47.138.3 3 12 224987 20211215121153
212.47.139.172 8 13 3084845 20211215130328
212.47.139.132 3 16 4853105 20211215163012
54.188.2.97 0 1 31214 
185.158.209.7 1 11 141000 20211212152245
3.14.249.221 3 17 7704694 20211210221038
185.30.91.199 3 17 4856586 20211215171438
5.197.230.125 6 20 4880809 20211215160529
79.137.143.173 1 1 7910 20211210144938
34.219.112.48 0 1 21981 
194.135.152.23 3 13 239591 20211215185457
94.20.66.91 6 33 9709644 20211215151607
45.15.43.81 7 21 4888879 20211215210843
212.47.137.252 3 16 4853131 20211215204608
61.143.61.119 1 1 6889 20211206105738
54.244.57.226 0 1 31214 
34.215.234.49 1 1 7963 20211215010807
212.47.143.59 4 17 4871493 20211215154559
212.47.139.19 1 5 59563 20211215165156
223.135.111.192 1 1 6889 20211207055022
46.228.188.170 1 1 8078 20211215134059
212.47.140.202 3 16 4853134 20211215210257
81.92.200.211 10 27 52154 20211211110625
95.52.94.238 1 1 7961 20211215190319
205.169.39.150 4 22 7780392 20211207202926
37.46.114.33 12 43 24553509 20211212230937
2.132.81.106 3 16 4853097 20211215163458
185.30.89.29 3 16 4853133 20211215174916
52.43.134.141 0 1 3879 
185.30.89.41 4 19 4868107 20211215204346
58.251.94.154 2 11 130883 20211207182848
5.197.234.175 1 10 130535 20211215150327
101.133.161.22 1 1 32631 20211207225831
31.41.90.38 2 11 207348 20211211182149
212.47.141.203 3 17 4856583 20211215181832
205.169.39.25 3 16 7700411 20211204205357
35.161.40.31 0 1 3879 
222.175.198.11 1 1 7923 20211208223354
194.135.153.147 3 16 4853110 20211215211802
34.101.220.163 2 2 64932 20211209224821
212.47.140.215 1 5 59561 20211215184135
154.70.152.150 2 2 64940 20211208212811
37.120.232.230 3 17 7704694 20211211171512
95.67.12.228 2 11 207345 20211211174934
37.47.136.144 8 35 22992060 20211212234734
94.40.23.38 0 1 14603 
212.47.142.240 5 18 1684667 20211215175322
212.47.141.207 1 1 8078 20211215185722
95.105.127.6 2 2 14804 20211208181845
181.215.191.96 0 1 11715 
5.44.38.165 3 14 3419493 20211215193251
212.47.137.55 3 16 4853137 20211215215434
185.71.65.189 0 1 271 
212.47.140.114 3 17 4856578 20211215142253
185.30.90.228 3 16 1676684 20211215223854
212.47.142.74 8 19 3459854 20211215154035
205.169.39.71 4 22 7780162 20211212005608
185.248.131.119 5 18 4868954 20211216035836
185.43.191.203 1 6 62978 20211215170332
35.88.95.37 1 1 7906 20211211010514
66.249.83.98 3 19 3647147 20211215205258
119.90.42.83 1 1 32467 20211208091304
35.87.97.45 1 1 6889 20211206064518
212.47.137.139 3 17 4856584 20211215170833
212.47.142.204 2 12 3300446 20211215215550
5.44.37.192 4 18 4864652 20211215211540
74.125.213.31 6 18 8415971 20211212172733
92.60.179.207 3 17 7704696 20211210152749
212.47.141.61 3 16 1676676 20211215162546
145.255.169.69 3 17 4856585 20211215155930
82.194.26.5 6 20 4880811 20211215170632
54.221.27.173 1 1 6891 20211206115951
54.187.27.59 3 16 7700405 20211206102526
213.136.71.25 1 6 77919 20211204231320
185.74.230.230 3 16 7701435 20211207210245
23.94.244.36 1 1 6889 20211204193759
194.135.168.11 1 5 59564 20211215191724
5.191.54.38 4 18 4860688 20211215181025
194.135.153.112 3 16 4879510 20211215182530
35.88.126.28 1 1 7986 20211214041644
87.237.19.7 3 16 7701244 20211211171516
154.70.153.53 2 2 59380 20211205194552
54.156.87.149 4 4 76132 20211206125813
194.135.154.73 4 17 4918884 20211215201655
212.47.142.139 3 16 4853129 20211215185824
31.13.127.38 1 6 2645388 20211209204836
185.81.80.118 1 6 74129 20211215135524
5.44.39.51 3 17 4856579 20211215152411
213.133.168.73 2 11 207353 20211211180553
37.150.84.63 6 33 9709640 20211215155755
195.216.230.113 4 23 4915588 20211215225138
208.94.228.146 2 5 61346 20211208141119
82.194.26.130 4 16 3431022 20211215125948
5.44.37.241 1 1 8033 20211215222921
52.90.244.172 1 1 29843 20211206062309
195.121.71.37 3 16 4853041 20211213213627
95.133.183.77 4 26 22490559 20211210161651
168.151.204.223 2 6 2643747 20211205163111
85.117.56.68 3 14 305366 20211215175355
145.249.183.253 3 17 4856586 20211215183309
188.163.39.232 0 1 3179904 
185.206.225.228 2 2 48575 20211207172324
84.17.50.165 4 12 14804818 20211207200414
191.53.194.158 0 1 3450 
195.138.80.198 5 27 7908592 20211211175452
89.219.166.132 8 22 4896732 20211215235057
85.132.117.215 3 17 4856579 20211215191749
109.254.49.68 1 11 140994 20211212093609
212.47.140.178 4 18 4860693 20211215201734
5.191.22.14 3 17 4856547 20211215214534
109.127.43.30 1 5 59566 20211215172741
181.214.178.32 1 3 85443 20211206163250
58.122.210.154 1 1 6885 20211207082139
54.189.177.172 1 1 7914 20211210011750
116.202.35.106 1 1 7902 20211210120241
74.125.212.3 0 1 31214 
64.41.200.112 1 1 29643 20211204122557
54.149.121.176 1 1 7978 20211214043635
208.94.231.119 0 2 2614633 
89.223.119.112 3 17 4856583 20211215181359
195.121.71.5 3 16 4853041 20211213213617
212.58.121.110 12 36 6680250 20211216050933 20211216050933 /
212.47.139.182 3 10 218881 20211215221318
191.53.195.176 1 1 6897 20211207143851
35.86.238.253 3 16 7700409 20211206102535
176.53.221.242 1 1 6895 20211205150409
185.233.35.39 3 16 4853100 20211215153519
94.20.174.158 14 27 4967919 20211215193625
74.125.213.29 0 11 4379768 
185.81.83.105 4 17 4861133 20211215145333
44.236.207.248 3 16 7700402 20211204122051
109.69.66.99 1 1 7919 20211208150256
171.13.14.22 3 16 7700413 20211206161041
195.211.23.217 0 1 2583419 
194.135.167.226 3 16 4853094 20211215185127
212.47.140.18 3 17 4856584 20211215190759
212.47.137.194 6 23 6663110 20211215204517
93.170.89.251 3 17 7704698 20211210170008
18.237.43.94 1 1 7982 20211214101004
77.244.124.215 1 1 8072 20211215165248
221.130.37.162 2 2 65337 20211214053430
46.22.213.69 3 17 7703859 20211206004006
93.178.222.105 1 11 140915 20211204135659
3.133.138.87 3 16 7700413 20211205161546
188.163.39.93 1 4 47608 20211214233514
194.135.153.140 3 15 3422943 20211215171722
40.117.37.216 2 2 65320 20211215134841
85.140.118.243 3 16 7701244 20211211053225
173.252.111.118 0 1 14603 
66.249.83.75 3 18 8236017 20211216035940
5.44.36.209 4 18 4864669 20211215181241
178.128.92.15 4 4 118742 20211205211047
195.211.23.218 0 1 1698502 
149.56.150.35 1 1 29681 20211206192255
94.20.96.193 3 14 1402796 20211215135347
20.124.207.77 4 4 28138 20211212045440
44.234.8.224 3 16 4853037 20211214101324
178.74.235.228 3 16 7700407 20211207175824
77.244.124.30 3 17 4856580 20211215134942
212.47.138.41 3 16 4853133 20211215171415
66.249.83.29 8 29 4959998 20211215211216
134.209.146.89 1 1 6889 20211205225717
185.228.133.253 3 17 4856540 20211215194647
40.117.185.219 4 4 25740 20211206171650
207.244.230.205 4 4 26861 20211208060706
68.183.8.35 1 1 32471 20211208211549
5.178.215.241 3 17 4856557 20211215225149
102.129.142.136 0 2 4878406 
35.80.13.87 0 1 3450 
2.135.67.197 3 16 4853094 20211215185512
13.234.21.98 1 3 50517 20211211173511
212.47.137.192 2 4 136225 20211215141747
212.47.143.174 3 16 4853133 20211215211400
79.133.191.80 7 27 4947163 20211215163927
66.249.83.119 2 6 142802 20211216040101
35.85.136.247 0 1 21981 
95.134.114.100 3 16 7700403 20211205093342
5.191.12.5 3 16 4853138 20211215165448
87.245.200.133 3 16 7701296 20211212165742
18.208.170.236 1 1 32467 20211208211941
188.163.39.14 0 1 270397 
37.120.147.167 2 2 64932 20211212041251
34.221.232.62 0 1 11715 
76.164.198.173 2 2 48575 20211205112416
180.171.163.118 1 1 32468 20211211225543
37.98.242.134 3 16 7701431 20211207211320
35.86.253.155 1 1 7917 20211208003150
34.219.130.131 1 1 7980 20211214101537
5.197.220.95 4 19 4868101 20211215124450
188.72.159.149 3 16 4853131 20211215170801
66.249.83.127 4 16 1400064 20211215212428
185.70.52.8 3 16 4853128 20211215165730
205.237.95.38 1 5 58534 20211205163614
54.201.195.108 1 1 6889 20211206064520
172.111.197.194 1 1 32472 20211211173510
74.73.97.70 1 1 7078 20211207180558
212.47.137.46 3 16 1676679 20211215172629
82.194.20.174 1 11 145176 20211215195847
79.137.143.105 1 10 130407 20211211131415
194.135.153.49 3 16 4853128 20211215185559
185.237.99.209 3 3 23749 20211209085020
18.236.145.142 1 1 6889 20211206102522
185.115.7.136 3 14 3419453 20211215222238
35.203.245.155 1 6 78918 20211210055707
195.191.169.100 3 16 4853020 20211215203428
212.47.138.43 4 17 4861136 20211215214340
212.104.78.6 3 16 7701300 20211212165743
35.87.254.11 0 1 3450 
194.135.168.68 3 17 4856579 20211215170741
68.183.245.101 2 4 82987 20211211173335
66.249.83.31 6 38 6412912 20211215184723
209.145.55.127 2 2 15840 20211209133433
212.47.137.124 3 16 4853135 20211215151925
137.117.88.98 2 2 64944 20211208213856
185.129.3.94 3 17 4856581 20211215151218
8.41.221.57 1 1 32467 20211209012509
128.124.167.176 5 19 9411639 20211213105457
195.138.80.199 1 11 140999 20211212152243
212.47.143.163 1 1 8073 20211215192838
74.125.213.3 2 10 2693815 20211212172749
104.197.3.184 1 1 7962 20211212151959
34.101.142.177 2 2 64944 20211209004645
54.188.197.115 3 16 7700406 20211204122110
92.242.112.252 3 17 4856548 20211215202855
34.209.137.91 1 1 7908 20211210011709
64.124.51.154 1 1 7915 20211208120039
52.43.237.101 3 16 4853039 20211214101042
5.44.36.183 3 15 4582743 20211215202307
212.47.142.249 4 8 83793 20211215211049
195.121.71.38 3 16 4853037 20211213213614
89.42.60.125 3 17 4856584 20211215175221
154.16.155.35 0 1 1698502 
149.27.183.124 4 20 4871449 20211215140251
35.88.4.107 3 16 4853039 20211214101017
92.51.66.2 3 17 4856579 20211215124356
35.245.188.175 1 1 32471 20211207191020
36.110.211.69 0 2 13960 
54.213.96.45 1 1 7982 20211214042238
95.82.121.210 3 16 4853094 20211215153440
39.103.145.192 0 1 4597 
195.211.23.213 0 1 3450 
176.53.221.37 1 1 6889 20211206230503
65.21.206.43 2 2 14801 20211211104100
5.191.22.76 4 18 4864657 20211215211815
35.88.148.198 1 1 7908 20211212011641
79.137.143.135 1 10 130411 20211210144938
178.72.190.182 4 17 4955585 20211215191909
5.197.212.2 3 16 4853133 20211215144238
52.38.26.216 3 16 4853045 20211214041101
52.152.217.255 4 4 129866 20211211193139
31.13.127.10 0 1 1698502 
212.58.121.206 3 15 1673195 20211215215755
77.74.177.119 1 1 7969 20211215165505
34.125.214.29 2 2 64946 20211211151447
34.70.176.19 1 11 133933 20211214161404
54.202.18.94 1 1 6889 20211206110101
34.209.90.246 1 1 7982 20211214041720
38.18.55.211 1 1 6895 20211207130608
212.47.142.157 3 17 4856551 20211215204258
161.35.246.138 3 16 7701253 20211208234124
54.213.37.112 1 1 7917 20211208010858
54.145.116.72 1 1 6891 20211206192441
176.53.218.93 1 1 6891 20211207070350
66.249.83.73 7 24 3941250 20211214191625
89.42.205.85 1 10 130534 20211215161211
77.52.179.6 1 11 140918 20211204141149
194.135.168.95 3 17 4856585 20211215192353
212.47.142.32 4 17 4861215 20211215141307
93.191.10.4 2 11 207344 20211211175154
49.207.216.177 4 18 4860585 20211215161834
195.211.23.216 0 1 3179904 
212.47.137.59 3 16 4853131 20211215194417
35.88.94.27 1 1 7978 20211214101456
62.16.14.195 3 16 1676676 20211215164643
82.194.21.86 4 18 4864583 20211215160742
35.86.94.36 1 1 7904 20211211010737
79.137.143.104 1 1 7904 20211210144746
205.237.93.13 0 3 2609737 
31.146.248.96 3 17 4856581 20211215221102
128.90.170.78 2 2 15828 20211208085131
85.255.235.64 1 3 50521 20211211173510
5.191.52.41 3 16 4853106 20211215215927
195.211.23.215 0 1 14603 
82.194.26.212 3 16 4853100 20211215171504
87.115.231.179 2 4 82987 20211211173334
66.249.83.125 6 20 4908245 20211216034358
35.88.91.182 1 1 7978 20211214101301
41.140.163.119 3 17 7704703 20211209171753
64.227.73.24 3 16 7701253 20211208211550
34.222.157.229 0 1 2245 
94.228.16.42 8 36 13206112 20211215184629
176.88.84.224 4 19 8811071 20211213002727
5.178.15.9 4 29 8181585 20211215174218
193.176.214.57 4 18 4860694 20211215190034
185.30.90.244 3 16 4853096 20211215190516
212.47.143.109 2 8 6430023 20211215192409
66.249.83.205 3 23 6739982 20211214185354
219.100.37.238 1 1 6893 20211207172059
178.74.99.238 3 17 7704748 20211213071845
95.52.60.162 14 43 23045074 20211212161813
2.137.97.14 1 1 7913 20211208214411
95.153.170.227 5 34 6094445 20211215231447
54.191.197.6 0 1 11715 
186.179.39.48 1 1 32471 20211209033255
74.125.212.29 0 4 39796 
82.194.28.22 4 18 4864659 20211215125502
185.43.191.109 3 16 4853092 20211215212921
212.47.136.71 3 7 4730629 20211215181427
194.50.13.91 4 18 7712714 20211213095617
23.20.167.0 1 1 32475 20211208212033
63.33.82.168 0 2 29206 
45.90.62.240 1 1 6889 20211206150354
212.47.142.101 4 19 5134980 20211215221239
195.121.70.228 3 17 5011834 20211213213618
185.43.249.5 2 11 207352 20211211182219
188.163.39.149 2 4 1259875 20211214233517
74.125.212.31 1 1 7998 20211213215427
194.135.154.130 3 17 4856589 20211215173021
44.233.146.97 3 16 4853041 20211214101307
176.53.222.126 1 1 6889 20211205204412
128.199.97.60 2 2 64936 20211210134036
109.75.212.101 3 16 7701429 20211207210814
95.82.115.34 3 17 7704746 20211212101004
3.120.130.29 2 2 600 20211204121329
35.89.11.249 3 16 4853039 20211214041126
95.133.161.77 3 17 7703855 20211206171206
END_VISITOR

# Date - Pages - Hits - Bandwidth - Visits
BEGIN_DAY 13
20211204 150 513 89255977 17
20211205 166 289 43628487 27
20211206 75 231 77121199 51
20211207 175 595 216505547 42
20211208 335 664 127652854 55
20211209 81 261 48966741 27
20211210 78 229 77004871 28
20211211 168 587 119042938 44
20211212 198 580 155355474 29
20211213 90 443 138724567 26
20211214 110 440 136590243 55
20211215 708 3182 789793389 234
20211216 26 98 15221570 15
END_DAY

# Session range - Number of visits
BEGIN_SESSION 7
30mn-1h 15
2mn-5mn 17
1h+ 14
15mn-30mn 16
5mn-15mn 12
30s-2mn 26
0s-30s 548
END_SESSION

# URL - Pages - Bandwidth - Entry - Exit
# The 10 first Pages must be first (order not required for others)
BEGIN_SIDER 69
/ 877 9293947 594 340
/components/vendor/font-awesome/webfonts/fa-solid-900.woff2 362 27444812 14 157
/components/vendor/font-awesome/webfonts/fa-regular-400.woff2 320 4587796 8 70
/login 68 306095 4 10
/password/reset 67 258587 0 1
/about 47 434353 4 9
/account/profile 43 243870 1 7
/send_mail 43 61505 3 3
/register 32 155273 2 11
/support 28 154542 2 3
/en/login 14 99047 0 1
/components/vendor/font-awesome/webfonts/fa-regular-400.ttf 6 161628 0 0
/account/invest 10 109509 0 0
/password/reset/a186363c9121dbdd5b6fb845a62db2acca8e995936a48d062392a7c626902f50 2 7786 1 1
/ru 7 137151 0 0
/en/about 7 72205 0 0
/ru/register 8 58304 0 0
/en/started 6 63050 0 0
/components/vendor/font-awesome/webfonts/fa-solid-900.eot 13 1883968 0 1
/password/reset/cda7815df8a447a2f92ac72e7d3657f7a44be436a96dd7a367bdf8bf3eacf3d0 4 22207 2 0
/en/rules 6 82160 0 0
/account/payment-history 5 29897 0 0
/components/vendor/bootstrap/css/bootstrap.min.css.map 11 1171247 0 0
/password/reset/4c19dafca06aface080fc418d7129c89e410c80f25232d3a4ed3a64382f6930d 5 27797 2 0
/started 19 170365 0 2
/.well-known/acme-challenge/jK72eXdv-hyRtNEZJaeFKLMT6pVLa1ppGMqZ5Km9NXk 4 1200 4 0
/faq 21 283118 0 3
/en/register 8 56963 0 0
/ru/rules 7 108741 0 0
/components/vendor/font-awesome/webfonts/fa-brands-400.woff2 6 298466 0 0
/cron-run-percent-793196380 4 4040 1 1
/components/vendor/font-awesome/webfonts/fa-brands-400.woff 6 349506 0 0
/ru/account/deposit 2 12470 0 0
/ru/account/profile 13 78467 0 3
/components/vendor/font-awesome/webfonts/fa-regular-400.eot 13 365606 0 0
/password/reset/8d42fd233e06bcac883204670d19c32f4b3f31a9eda90d93bba9d61ec07f6ede 5 27785 3 0
/en/reviews 6 59451 0 0
/.well-known/acme-challenge/Gg29drLv_1NvzmSxUkKjg6xorChVTS4LeLF9o5qRYKg 4 1200 0 4
/ru/faq 6 127910 0 0
/components/vendor/font-awesome/webfonts/fa-brands-400.ttf 6 537960 0 0
/ru/login 17 111996 0 1
/en/faq 6 113098 0 0
/password/reset/83a340f5389d1b6abb076e36db213962b758986e96ba2f6f61da4cd6d8fde8cb 3 11685 2 2
/components/vendor/font-awesome/webfonts/fa-solid-900.ttf 7 1045500 0 0
/components/vendor/bootstrap/js/bootstrap.bundle.min.js.map 11 925375 0 0
/ru/account/deposit-history 1 5989 0 0
/account/deposit 4 25141 0 0
/en 7 128864 0 0
/components/vendor/font-awesome/webfonts/fa-regular-400.woff 18 294548 0 4
/ru/about 7 84579 0 0
/ru/reviews 6 60071 0 0
/reviews 17 113135 0 0
/en/password/reset 2 7404 0 0
/en/support 6 54158 0 0
/components/vendor/font-awesome/webfonts/fa-brands-400.eot 12 1077808 0 0
/components/vendor/font-awesome/webfonts/fa-solid-900.woff 19 1668612 1 8
/password/reset/1e9dcea7f3d270784bd8a52fb097d9dc90ac0eb51d66a32864930cfcb226055b 3 11636 0 0
/rules 17 179409 0 2
/account/referral 15 90813 0 1
/ru/support 6 55554 0 0
/add-deposit 6 6082 0 0
/password/reset/4e4e549d509ac9f7afaa67feceb2ea98e6352d994d9469e0a0ef2dc079148fa3 1 5526 0 0
/account/deposit-history 14 84602 0 2
/ru/account/referral 12 72519 0 0
/ru/started 6 72838 0 0
/password/reset/7e675c2959b6f0e84375173848883f98e083ec732dad09a265351ebce8054a3d 4 22122 2 0
/pay-perfect-money 4 4592 0 0
/account/invest-history 6 36149 0 1
/ru/account/invest 2 21962 0 0
END_SIDER
